%YAML 1.1
%TAG !u! tag:unity3d.com,2011:
--- !u!21 &2100000
Material:
  serializedVersion: 3
  m_ObjectHideFlags: 0
  m_PrefabParentObject: {fileID: 0}
  m_PrefabInternal: {fileID: 0}
  m_Name: Ammo_BarrelBomb_Material
  m_Shader: {fileID: 4800000, guid: c30d4abe7e28b384284a70abe90ffad2, type: 3}
  m_ShaderKeywords: []
  m_CustomRenderQueue: -1
  m_SavedProperties:
    serializedVersion: 2
    m_TexEnvs:
      data:
        first:
          name: _MainTex
        second:
          m_Texture: {fileID: 2800000, guid: 43c98b3dbca63b44bbec28ee12aacef6, type: 3}
          m_Scale: {x: 1, y: 1}
          m_Offset: {x: 0, y: 0}
      data:
        first:
          name: _DiffuseTex
        second:
          m_Texture: {fileID: 2800000, guid: 43c98b3dbca63b44bbec28ee12aacef6, type: 3}
          m_Scale: {x: 1, y: 1}
          m_Offset: {x: 0, y: 0}
    m_Floats: {}
    m_Colors:
      data:
        first:
          name: _Color
        second: {r: 1, g: 1, b: 1, a: 1}
      data:
        first:
          name: _DiffuseColor
        second: {r: 1, g: 1, b: 1, a: 1}
      data:
        first:
          name: _ColorBase
        second: {r: 1, g: 1, b: 1, a: 1}
